epoch;acc;loss;val_acc;val_loss
0;0.5611111111111111;0.749844049082862;0.6;0.8487972617149353
1;0.6333333333333333;0.6686132384671105;0.5;0.6241210043430329
2;0.6166666666666667;0.7056863261593713;0.55;0.8820111632347107
3;0.6111111111111112;0.6868356870280372;0.65;1.4572474598884582
4;0.65;0.6435676564772924;0.55;2.274152970314026
